<?xml version="1.0" encoding="utf-8"?>
<!-- Generator: Adobe Illustrator 16.0.2, SVG Export Plug-In . SVG Version: 6.00 Build 0)  -->
<!DOCTYPE svg PUBLIC "-//W3C//DTD SVG 1.1//EN" "http://www.w3.org/Graphics/SVG/1.1/DTD/svg11.dtd">
<svg version="1.1" id="Слой_1" xmlns="http://www.w3.org/2000/svg" xmlns:xlink="http://www.w3.org/1999/xlink" x="0px" y="0px"
	 width="48px" height="48px" viewBox="0 0 48 48" enable-background="new 0 0 48 48" xml:space="preserve">
<g id="Background">
	<path id="White-background" fill="#FFFFFF" d="M24,4C12.96,4,4,12.96,4,24s8.96,20,20,20s20-8.96,20-20S35.04,4,24,4z"/>
</g>
<g id="Icon">
	<polygon id="fence" points="21.455,33.9 18.25,24.963 10,24.963 10,22.963 19.658,22.963 21.457,27.98 26.443,14.099 
		29.648,23.037 38,23.037 38,25.037 28.241,25.037 26.441,20.019 	"/>
</g>
</svg>
