<?xml version="1.0" encoding="utf-8"?>
<!-- Generator: Adobe Illustrator 16.0.2, SVG Export Plug-In . SVG Version: 6.00 Build 0)  -->
<!DOCTYPE svg PUBLIC "-//W3C//DTD SVG 1.1//EN" "http://www.w3.org/Graphics/SVG/1.1/DTD/svg11.dtd">
<svg version="1.1" id="Flow_icon" xmlns="http://www.w3.org/2000/svg" xmlns:xlink="http://www.w3.org/1999/xlink" x="0px" y="0px"
	 width="24px" height="24px" viewBox="0 0 24 24" enable-background="new 0 0 24 24" xml:space="preserve">
<path fill="#3583C0" d="M23.278,5.82c-1.485,0.968-2.767,1.804-5.49,1.804c-2.723,0-4.004-0.836-5.489-1.804
	C10.784,4.832,9.066,3.713,5.79,3.713c-2.772,0-4.428,0.801-5.79,1.646v2.219c0.101-0.065,0.201-0.13,0.3-0.194
	C1.784,6.416,3.067,5.58,5.79,5.58c2.723,0,4.005,0.836,5.49,1.804c1.514,0.987,3.231,2.107,6.508,2.107
	c3.065,0,4.765-0.979,6.212-1.914v-2.22C23.751,5.512,23.512,5.668,23.278,5.82z"/>
<path fill="#3583C0" d="M23.278,11.225c-1.485,0.968-2.767,1.804-5.49,1.804c-2.723,0-4.004-0.836-5.489-1.804
	c-1.515-0.988-3.232-2.107-6.509-2.107c-2.772,0-4.428,0.801-5.79,1.646v2.22c0.101-0.066,0.201-0.131,0.3-0.195
	c1.484-0.968,2.768-1.804,5.49-1.804c2.723,0,4.005,0.835,5.49,1.804c1.514,0.987,3.231,2.108,6.508,2.108
	c3.065,0,4.765-0.979,6.212-1.914v-2.219C23.751,10.917,23.512,11.073,23.278,11.225z"/>
<path fill="#3583C0" d="M23.278,16.615c-1.485,0.969-2.767,1.805-5.49,1.805c-2.723,0-4.004-0.836-5.489-1.805
	c-1.515-0.988-3.232-2.107-6.509-2.107c-2.772,0-4.428,0.801-5.79,1.646v2.219c0.101-0.064,0.201-0.129,0.3-0.193
	c1.484-0.969,2.768-1.805,5.49-1.805c2.723,0,4.005,0.836,5.49,1.805c1.514,0.986,3.231,2.107,6.508,2.107
	c3.065,0,4.765-0.98,6.212-1.914v-2.221C23.751,16.309,23.512,16.463,23.278,16.615z"/>
</svg>
