<?xml version="1.0" encoding="utf-8"?>
<!-- Generator: Adobe Illustrator 16.0.2, SVG Export Plug-In . SVG Version: 6.00 Build 0)  -->
<!DOCTYPE svg PUBLIC "-//W3C//DTD SVG 1.1//EN" "http://www.w3.org/Graphics/SVG/1.1/DTD/svg11.dtd">
<svg version="1.1" xmlns="http://www.w3.org/2000/svg" xmlns:xlink="http://www.w3.org/1999/xlink" x="0px" y="0px" width="48px"
	 height="48px" viewBox="0 0 48 48" enable-background="new 0 0 48 48" xml:space="preserve">
<g id="Background">
	<g>
		<path fill="#FFFFFF" d="M24,0C10.752,0,0,10.752,0,24s10.752,24,24,24s24-10.752,24-24S37.248,0,24,0z"/>
	</g>
</g>
<g id="Soil_temperature">
	<rect x="30" y="17.879" fill="#231F20" width="2.601" height="1.561"/>
	<rect x="30" y="14.009" fill="#231F20" width="2.601" height="1.561"/>
	<rect x="30" y="10.076" fill="#231F20" width="2.601" height="1.561"/>
	<path fill="#231F20" d="M27.991,20.309v-9.068c0-2.168-1.766-3.934-3.934-3.934c-2.169,0-3.933,1.765-3.933,3.934v9.023
		c-1.158,1.061-1.885,2.583-1.885,4.275c0,3.195,2.6,5.796,5.795,5.796c3.197,0,5.796-2.601,5.796-5.796
		C29.83,22.871,29.122,21.367,27.991,20.309z M24.034,28.712c-2.301,0-4.172-1.873-4.172-4.173c0-1.457,0.751-2.74,1.886-3.487l0,0
		v-9.812c0-1.274,1.037-2.31,2.31-2.31c1.275,0,2.31,1.036,2.31,2.31v9.837H26.36c1.113,0.75,1.847,2.022,1.847,3.461
		C28.207,26.839,26.336,28.712,24.034,28.712z"/>
	<path fill="#231F20" d="M24.838,22.207v-6.846c0-0.448-0.364-0.812-0.813-0.812c-0.447,0-0.812,0.364-0.812,0.812v6.852
		c-0.958,0.337-1.646,1.251-1.646,2.326c0,1.362,1.104,2.466,2.466,2.466s2.467-1.104,2.467-2.466
		C26.501,23.458,25.805,22.541,24.838,22.207z"/>
	<path fill="#231F20" d="M31.519,24.539c0,4.133-3.352,7.484-7.485,7.484c-4.132,0-7.484-3.352-7.484-7.484h-4.504
		c0,0,0,7.67,0,8.94c0,1.614,0.86,2.547,2.454,2.547c1.125,0,16.865,0,18.584,0s2.872-0.808,2.872-2.714c0-2.375,0-8.773,0-8.773
		H31.519z"/>
</g>
</svg>
